[
    {
        "icon": "md5-home",
        "label": "for-applicants",
        "items": [
            {
                "icon": "home",
                "label": "find-jobs",
                "to": "/jobs"
            },
            {
                "icon": "feed",
                "label": "remembered-jobs",
                "disable": true
            }
        ]
    },
    {
        "icon": "md5-home",
        "label": "general",
        "items": [
            {
                "icon": "img:../../yawik_logo-mobile.svg",
                "label": "about-yawik",
                "to": "/about-yawik",
                "type": "info"
            },
            {
                "icon": "auto_stories",
                "label": "documentation"
            }
        ]
    },
    {
        "icon": "home",
        "label": "for-companies",
        "items": [
            {
                "icon": "add",
                "label": "create-jobs",
                "to": "/stellenanzeige-erstellen",
                "type": "info"
            },
            {
                "icon": "euro",
                "label": "prices",
                "to": "/prices",
                "type": "info"

            }
        ]
    }
]
